<svg xmlns="http://www.w3.org/2000/svg" width="35.837" height="35.648" viewBox="0 0 35.837 35.648">
  <g id="Group_6" data-name="Group 6" transform="translate(0 -0.352)">
    <path id="Path_14" data-name="Path 14" d="M35.836,16.29c0-2.528-3.106-4.706-7.907-5.978L25.666,2.2A2.4,2.4,0,0,0,22.921.478l-4.531.85L12.811.373a2.394,2.394,0,0,0-2.62,1.737l-1.4,5.042-1.8-.676A1.195,1.195,0,0,0,5.376,7.594v3.534C2.044,12.424,0,14.239,0,16.289c0,2.649,3.352,5.973,8.051,8.054L6.686,30.624H4.778A4.783,4.783,0,0,0,0,35.4a.6.6,0,0,0,.6.6H35.24a.6.6,0,0,0,.6-.6,4.783,4.783,0,0,0-4.778-4.778H29.151l-1.366-6.281C32.484,22.263,35.836,18.939,35.836,16.29ZM9.587,9.92a1.132,1.132,0,0,1-.027-.2v-.6a1.195,1.195,0,1,1,2.389,0v.395q-1.228.169-2.364.4ZM12.65,7.686l1.936-1.664.792,3.166q-1.146.065-2.239.18V9.12a2.365,2.365,0,0,0-.492-1.434ZM16.6,9.143l-.324-1.31a19.821,19.821,0,0,1,5.711.083c2.139.428,3.668.859,4.333,1.06L26.6,9.991a41.4,41.4,0,0,0-8.68-.869c-.45,0-.889.011-1.326.021ZM11.343,2.429a1.2,1.2,0,0,1,1.288-.872l2.377.406H14.99l.22,1.174,3.19-.6h.015l4.728-.886a1.2,1.2,0,0,1,1.374.863l1.421,5.109c-.832-.231-2.1-.554-3.722-.878a20.939,20.939,0,0,0-6.238-.081l-.233-.93a1.195,1.195,0,0,0-1.94-.62L11.692,6.929a2.376,2.376,0,0,0-.944-.194,2.351,2.351,0,0,0-.632.1ZM6.571,7.6l1.939.727a2.373,2.373,0,0,0-.148.8v.6a2.3,2.3,0,0,0,.052.463q-.966.239-1.844.519ZM1.195,16.29c0-2.884,6.72-5.973,16.722-5.973s16.722,3.088,16.722,5.973c0,1.842-2.646,4.825-7.116,6.863L26.276,17.42V16.383l1.62.478.337-1.145L18.087,12.732a.6.6,0,0,0-.337,0L7.6,15.718l.337,1.145,1.62-.478v1.037L8.308,23.156C3.84,21.115,1.195,18.132,1.195,16.29ZM26.28,31.818V34.8h-1.2V31.818ZM23.891,34.8H11.946V31.818h1.791a.6.6,0,0,0,.6-.6V27.329l1.394.859a4.16,4.16,0,0,0,4.381,0l1.393-.857v3.891a.6.6,0,0,0,.6.6h1.791Zm-13.14-2.987V34.8H9.556V31.818ZM21.389,26l-1.907,1.173a2.972,2.972,0,0,1-3.131,0L14.444,26a7.817,7.817,0,0,1-3.694-6.611V16.037l7.169-2.108,7.165,2.108v3.348A7.817,7.817,0,0,1,21.389,26ZM9.852,21.662a9.047,9.047,0,0,0,3.285,4.881v4.083H7.907ZM4.778,31.818H8.361V34.8H1.244a3.589,3.589,0,0,1,3.534-2.987ZM34.593,34.8H27.475V31.818h3.584a3.589,3.589,0,0,1,3.534,2.987ZM22.7,30.624V26.541a9.047,9.047,0,0,0,3.285-4.881l1.944,8.962Zm0,0" transform="translate(0 0)" fill="#f89e54"/>
    <path id="Path_15" data-name="Path 15" d="M199.458,295.924l-.987-.4a4.7,4.7,0,0,0-4.343.454l.663.994a3.5,3.5,0,0,1,3.241-.338l.986.395Zm0,0" transform="translate(-182.512 -277.202)" fill="#f89e54"/>
    <path id="Path_16" data-name="Path 16" d="M321.087,295.972a4.689,4.689,0,0,0-4.343-.454l-.987.395.444,1.109.986-.394a3.492,3.492,0,0,1,3.241.337Zm0,0" transform="translate(-296.864 -277.194)" fill="#f89e54"/>
    <path id="Path_17" data-name="Path 17" d="M269.463,392.684l-1.672-.335-.239,1.171,1.677.336a2.348,2.348,0,0,0,2.564-1.251l-1.069-.534A1.155,1.155,0,0,1,269.463,392.684Zm0,0" transform="translate(-251.547 -368.282)" fill="#f89e54"/>
  </g>
</svg>
